{
  "images" : [
    {
      "idiom" : "universal",
      "scale" : "1x",
      "filename" : "top_menu_sign.png"
    },
    {
      "idiom" : "universal",
      "scale" : "2x",
      "filename" : "top_menu_sign@2x.png"
    },
    {
      "idiom" : "universal",
      "filename" : "top_menu_sign@3x.png",
      "scale" : "3x"
    }
  ],
  "info" : {
    "version" : 1,
    "author" : "xcode"
  }
}